{
  "implemented": true,
  "name": "Smoochum",
  "nationalPokedexNumber": 238,
  "primaryType": "ice",
  "secondaryType": "psychic",
  "abilities": [
    "oblivious",
    "forewarn",
    "h:hydration"
  ],
  "baseStats": {
    "hp": 45,
    "attack": 30,
    "defence": 15,
    "special_attack": 85,
    "special_defence": 65,
    "speed": 65
  },
  "catchRate": 45,
  "maleRatio": 0,
  "shoulderMountable": false,
  "baseExperienceYield": 61,
  "experienceGroup": "medium_fast",
  "eggCycles": 25,
  "eggGroups": [
    "undiscovered"
  ],
  "moves": [
    "1:lick",
    "1:pound",
    "4:powdersnow",
    "8:copycat",
    "12:confusion",
    "16:covet",
    "20:sing",
    "21:heartstamp",
    "24:faketears",
    "28:icepunch",
    "31:luckychant",
    "32:psychic",
    "35:avalanche",
    "36:sweetkiss",
    "40:meanlook",
    "44:perishsong",
    "48:blizzard",
    "egg:captivate",
    "egg:fakeout",
    "egg:icepunch",
    "egg:meditate",
    "egg:miracleeye",
    "egg:nastyplot",
    "egg:psychup",
    "egg:roleplay",
    "egg:wakeupslap",
    "egg:wish",
    "tm:attract",
    "tm:auroraveil",
    "tm:avalanche",
    "tm:blizzard",
    "tm:bodyslam",
    "tm:calmmind",
    "tm:captivate",
    "tm:charm",
    "tm:confide",
    "tm:doubleteam",
    "tm:drainingkiss",
    "tm:dreameater",
    "tm:echoedvoice",
    "tm:encore",
    "tm:endure",
    "tm:facade",
    "tm:faketears",
    "tm:flash",
    "tm:fling",
    "tm:frostbreath",
    "tm:frustration",
    "tm:grassknot",
    "tm:hail",
    "tm:helpinghand",
    "tm:hiddenpower",
    "tm:icebeam",
    "tm:icepunch",
    "tm:icywind",
    "tm:lightscreen",
    "tm:magicroom",
    "tm:megakick",
    "tm:megapunch",
    "tm:metronome",
    "tm:nastyplot",
    "tm:naturalgift",
    "tm:payback",
    "tm:protect",
    "tm:psychic",
    "tm:psychup",
    "tm:psyshock",
    "tm:raindance",
    "tm:recycle",
    "tm:reflect",
    "tm:rest",
    "tm:return",
    "tm:round",
    "tm:secretpower",
    "tm:shadowball",
    "tm:skillswap",
    "tm:sleeptalk",
    "tm:snore",
    "tm:storedpower",
    "tm:substitute",
    "tm:swagger",
    "tm:thief",
    "tm:toxic",
    "tm:trick",
    "tm:trickroom",
    "tm:uproar",
    "tm:waterpulse",
    "tm:wonderroom",
    "tm:zenheadbutt",
    "tutor:attract",
    "tutor:blizzard",
    "tutor:bodyslam",
    "tutor:captivate",
    "tutor:confusion",
    "tutor:counter",
    "tutor:covet",
    "tutor:curse",
    "tutor:doubleedge",
    "tutor:doubleteam",
    "tutor:dreameater",
    "tutor:dynamicpunch",
    "tutor:endure",
    "tutor:frustration",
    "tutor:healbell",
    "tutor:helpinghand",
    "tutor:hiddenpower",
    "tutor:icepunch",
    "tutor:icywind",
    "tutor:lick",
    "tutor:magiccoat",
    "tutor:magicroom",
    "tutor:meanlook",
    "tutor:meditate",
    "tutor:megakick",
    "tutor:megapunch",
    "tutor:metronome",
    "tutor:mimic",
    "tutor:mudslap",
    "tutor:nightmare",
    "tutor:perishsong",
    "tutor:pound",
    "tutor:powdersnow",
    "tutor:protect",
    "tutor:psychic",
    "tutor:psychup",
    "tutor:raindance",
    "tutor:recycle",
    "tutor:rest",
    "tutor:return",
    "tutor:roleplay",
    "tutor:seismictoss",
    "tutor:shadowball",
    "tutor:signalbeam",
    "tutor:sing",
    "tutor:skillswap",
    "tutor:sleeptalk",
    "tutor:snore",
    "tutor:substitute",
    "tutor:swagger",
    "tutor:sweetkiss",
    "tutor:sweetscent",
    "tutor:thief",
    "tutor:toxic",
    "tutor:trick",
    "tutor:uproar",
    "tutor:waterpulse",
    "tutor:wonderroom",
    "tutor:zenheadbutt"
  ],
  "labels": [
    "gen2",
    "baby"
  ],
  "pokedex": [
    "cobblemon.species.smoochum.desc"
  ],
  "evolutions": [
    {
      "id": "smoochum_jynx",
      "variant": "level_up",
      "result": "jynx",
      "consumeHeldItem": false,
      "learnableMoves": [],
      "requirements": [
        {
          "variant": "level",
          "minLevel": 30
        }
      ]
    }
  ],
  "baseScale": 0.5,
  "hitbox": {
    "width": 0.6,
    "height": 0.9,
    "fixed": false
  },
  "baseFriendship": 50,
  "evYield": {
    "hp": 0,
    "attack": 0,
    "defence": 0,
    "special_attack": 1,
    "special_defence": 0,
    "speed": 0
  },
  "height": 4,
  "weight": 60,
  "aspects": [],
  "cannotDynamax": false
}