{
  "name": "Comfey",
  "nationalPokedexNumber": 764,
  "primaryType": "fairy",
  "abilities": [
    "flowerveil",
    "triage",
    "h:naturalcure"
  ],
  "baseStats": {
    "hp": 51,
    "attack": 52,
    "defence": 90,
    "special_attack": 82,
    "special_defence": 110,
    "speed": 100
  },
  "catchRate": 60,
  "maleRatio": 0.25,
  "shoulderMountable": false,
  "baseExperienceYield": 170,
  "experienceGroup": "fast",
  "eggCycles": 20,
  "eggGroups": [
    "grass"
  ],
  "moves": [
    "1:growth",
    "1:wrap",
    "3:vinewhip",
    "6:helpinghand",
    "9:drainingkiss",
    "12:flowershield",
    "15:magicalleaf",
    "18:synthesis",
    "21:leechseed",
    "22:naturalgift",
    "24:grassknot",
    "27:sweetkiss",
    "30:floralhealing",
    "33:petalblizzard",
    "36:aromatherapy",
    "39:playrough",
    "42:sweetscent",
    "45:petaldance",
    "48:grassyterrain",
    "egg:afteryou",
    "egg:amnesia",
    "egg:endure",
    "egg:leaftornado",
    "egg:luckychant",
    "egg:worryseed",
    "tm:acrobatics",
    "tm:allyswitch",
    "tm:amnesia",
    "tm:attract",
    "tm:bulletseed",
    "tm:calmmind",
    "tm:charm",
    "tm:confide",
    "tm:dazzlinggleam",
    "tm:doubleteam",
    "tm:drainingkiss",
    "tm:echoedvoice",
    "tm:encore",
    "tm:endure",
    "tm:energyball",
    "tm:facade",
    "tm:fling",
    "tm:frustration",
    "tm:gigadrain",
    "tm:grassknot",
    "tm:grassyterrain",
    "tm:helpinghand",
    "tm:hiddenpower",
    "tm:hyperbeam",
    "tm:lightscreen",
    "tm:magicalleaf",
    "tm:naturepower",
    "tm:playrough",
    "tm:pollenpuff",
    "tm:protect",
    "tm:psychup",
    "tm:rest",
    "tm:return",
    "tm:round",
    "tm:safeguard",
    "tm:seedbomb",
    "tm:sleeptalk",
    "tm:snore",
    "tm:solarbeam",
    "tm:storedpower",
    "tm:substitute",
    "tm:sunnyday",
    "tm:swagger",
    "tm:taunt",
    "tm:thief",
    "tm:toxic",
    "tm:trick",
    "tm:trickroom",
    "tm:uturn",
    "tutor:afteryou",
    "tutor:allyswitch",
    "tutor:bind",
    "tutor:celebrate",
    "tutor:covet",
    "tutor:defog",
    "tutor:drainingkiss",
    "tutor:gigadrain",
    "tutor:grassyglide",
    "tutor:healbell",
    "tutor:helpinghand",
    "tutor:leechseed",
    "tutor:magicalleaf",
    "tutor:magiccoat",
    "tutor:painsplit",
    "tutor:roleplay",
    "tutor:seedbomb",
    "tutor:snore",
    "tutor:synthesis",
    "tutor:tailwind",
    "tutor:telekinesis",
    "tutor:trick",
    "tutor:worryseed"
  ],
  "labels": [
    "gen7"
  ],
  "pokedex": [
    "cobblemon.species.comfey.desc"
  ],
  "evolutions": [],
  "baseScale": 1,
  "hitbox": {
    "width": 1,
    "height": 1,
    "fixed": false
  },
  "baseFriendship": 50,
  "evYield": {
    "hp": 0,
    "attack": 0,
    "defence": 0,
    "special_attack": 0,
    "special_defence": 2,
    "speed": 0
  },
  "height": 1,
  "weight": 3,
  "aspects": [],
  "cannotDynamax": false
}