{
  "name": "Barboach",
  "nationalPokedexNumber": 339,
  "primaryType": "water",
  "secondaryType": "ground",
  "abilities": [
    "oblivious",
    "anticipation",
    "h:hydration"
  ],
  "baseStats": {
    "hp": 50,
    "attack": 48,
    "defence": 43,
    "special_attack": 46,
    "special_defence": 41,
    "speed": 60
  },
  "catchRate": 190,
  "maleRatio": 0.5,
  "shoulderMountable": false,
  "baseExperienceYield": 58,
  "experienceGroup": "medium_fast",
  "eggCycles": 20,
  "eggGroups": [
    "water_2"
  ],
  "moves": [
    "1:mudslap",
    "1:watergun",
    "6:mudsport",
    "6:rest",
    "6:snore",
    "6:watersport",
    "12:waterpulse",
    "13:mudbomb",
    "18:amnesia",
    "20:magnitude",
    "24:aquatail",
    "31:muddywater",
    "36:earthquake",
    "42:futuresight",
    "48:fissure",
    "egg:dragondance",
    "egg:earthpower",
    "egg:flail",
    "egg:hydropump",
    "egg:muddywater",
    "egg:mudshot",
    "egg:spark",
    "egg:takedown",
    "egg:thrash",
    "egg:whirlpool",
    "tm:amnesia",
    "tm:attract",
    "tm:blizzard",
    "tm:bounce",
    "tm:bulldoze",
    "tm:captivate",
    "tm:chillingwater",
    "tm:confide",
    "tm:dive",
    "tm:doubleteam",
    "tm:dragondance",
    "tm:earthpower",
    "tm:earthquake",
    "tm:endure",
    "tm:facade",
    "tm:frustration",
    "tm:futuresight",
    "tm:hail",
    "tm:helpinghand",
    "tm:hiddenpower",
    "tm:hydropump",
    "tm:icebeam",
    "tm:icywind",
    "tm:liquidation",
    "tm:muddywater",
    "tm:mudshot",
    "tm:mudslap",
    "tm:naturalgift",
    "tm:outrage",
    "tm:protect",
    "tm:raindance",
    "tm:rest",
    "tm:return",
    "tm:rockslide",
    "tm:rocktomb",
    "tm:round",
    "tm:sandstorm",
    "tm:scald",
    "tm:secretpower",
    "tm:sleeptalk",
    "tm:snore",
    "tm:stealthrock",
    "tm:stompingtantrum",
    "tm:stoneedge",
    "tm:substitute",
    "tm:sunnyday",
    "tm:surf",
    "tm:swagger",
    "tm:swift",
    "tm:takedown",
    "tm:terablast",
    "tm:toxic",
    "tm:waterfall",
    "tm:waterpulse",
    "tm:whirlpool",
    "tm:zenheadbutt",
    "tutor:aquatail",
    "tutor:bounce",
    "tutor:dive",
    "tutor:doubleedge",
    "tutor:earthpower",
    "tutor:endure",
    "tutor:headbutt",
    "tutor:icywind",
    "tutor:mimic",
    "tutor:mudslap",
    "tutor:sleeptalk",
    "tutor:snore",
    "tutor:spark",
    "tutor:substitute",
    "tutor:swagger",
    "tutor:waterpulse"
  ],
  "labels": [
    "gen3"
  ],
  "pokedex": [
    "cobblemon.species.barboach.desc"
  ],
  "evolutions": [
    {
      "id": "barboach_whiscash",
      "variant": "level_up",
      "result": "whiscash",
      "consumeHeldItem": false,
      "learnableMoves": [
        "thrash"
      ],
      "requirements": [
        {
          "variant": "level",
          "minLevel": 30
        }
      ]
    }
  ],
  "baseScale": 1,
  "hitbox": {
    "width": 1,
    "height": 1,
    "fixed": false
  },
  "baseFriendship": 50,
  "evYield": {
    "hp": 1,
    "attack": 0,
    "defence": 0,
    "special_attack": 0,
    "special_defence": 0,
    "speed": 0
  },
  "height": 4,
  "weight": 19,
  "aspects": [],
  "cannotDynamax": false
}